<?xml version="1.0" encoding="utf-8"?>
<!-- Generator: Adobe Illustrator 22.0.0, SVG Export Plug-In . SVG Version: 6.00 Build 0)  -->
<svg version="1.1" id="圖層_1" xmlns="http://www.w3.org/2000/svg" xmlns:xlink="http://www.w3.org/1999/xlink" x="0px" y="0px"
	 viewBox="0 0 112 85" style="enable-background:new 0 0 112 85;" xml:space="preserve">
<style type="text/css">
	.st0{opacity:0.7;}
	.st1{fill:none;stroke:url(#SVGID_1_);stroke-linecap:round;stroke-linejoin:round;stroke-miterlimit:10;stroke-dasharray:1.3;}
	.st2{fill:url(#SVGID_2_);}
	.st3{fill:url(#SVGID_3_);}
</style>
<title>MW PAY LOGO</title>
<desc>Created with Sketch.</desc>
<g class="st0">
	<linearGradient id="SVGID_1_" gradientUnits="userSpaceOnUse" x1="12.4021" y1="42.5" x2="99.5979" y2="42.5">
		<stop  offset="0.1053" style="stop-color:#D2A029"/>
		<stop  offset="0.3951" style="stop-color:#E8B800"/>
		<stop  offset="0.9912" style="stop-color:#FFFFFF"/>
	</linearGradient>
	<path class="st1" d="M63.6,62.2v20.3H49.6V62.6L12.9,2.4h21.6l22,37.2L78.5,2.4h20.6L63.6,62.2z"/>
</g>
<g>
	<linearGradient id="SVGID_2_" gradientUnits="userSpaceOnUse" x1="64.8511" y1="119.2619" x2="-28.6743" y2="-49.5856">
		<stop  offset="0.2803" style="stop-color:#E8B800"/>
		<stop  offset="0.6287" style="stop-color:#FFFFFF"/>
		<stop  offset="0.9912" style="stop-color:#FFFFFF"/>
	</linearGradient>
	<polygon class="st2" points="23.3,81 23.3,78.9 23.3,10.2 23.3,10.2 23.3,2.1 21.4,2.1 21.4,82.9 23.3,82.9 	"/>
	<linearGradient id="SVGID_3_" gradientUnits="userSpaceOnUse" x1="95.3711" y1="102.3573" x2="1.8455" y2="-66.4904">
		<stop  offset="0.2803" style="stop-color:#E8B800"/>
		<stop  offset="0.6287" style="stop-color:#FFFFFF"/>
		<stop  offset="0.9912" style="stop-color:#FFFFFF"/>
	</linearGradient>
	<path class="st3" d="M77.6,2.1L56,38.4L34.4,2.1h-0.6v2.6l0.1,0.1c0,0.1-0.1,0.2-0.1,0.3v5.2v11.8v0V81l0,1.9h1.8V29.1l15.5,26.7
		h9.7l14.5-24.2l0,0l0.4-0.8l0.5-0.8v52.8h14.3V2.1H77.6z M74.2,30l-14.4,24h-7.5L35.7,25.3V7.9L56,42L78.6,4h9.8L74.2,30z M88.7,81
		H78.2V26.6L88.7,7.4V81z"/>
</g>
</svg>
